{
    "UXVlc3Rpb246MTA3": "107",
    "UXVlc3Rpb246MTA4": "108",
    "UXVlc3Rpb246MTA5": "109",
    "UXVlc3Rpb246MTEw": "110",
    "UXVlc3Rpb246MTEx": "111",
    "UXVlc3Rpb246MTEy": "112",
    "UXVlc3Rpb246MTEz": "113",
    "UXVlc3Rpb246MTE0": "114",
    "UXVlc3Rpb246MTE1": "115",
    "UXVlc3Rpb246MTE2": "116",
    "UXVlc3Rpb246MTE3": "117",
    "UXVlc3Rpb246MTE4": "118",
    "UXVlc3Rpb246MTE5": "119",
    "UXVlc3Rpb246MTIw": "120",
    "UXVlc3Rpb246MTIx": "121",
    "UXVlc3Rpb246MTIy": "122",
    "UXVlc3Rpb246MTIz": "123",
    "UXVlc3Rpb246MTI0": "124",
    "UXVlc3Rpb246MTI1": "125",
    "UXVlc3Rpb246MTI3": "127",
    "UXVlc3Rpb246MTI4": "128",
    "UXVlc3Rpb246MTI5": "129",
    "UXVlc3Rpb246MTMw": "130",
    "UXVlc3Rpb246MTMx": "131",
    "UXVlc3Rpb246MTMy": "132",
    "UXVlc3Rpb246MTMz": "133",
    "UXVlc3Rpb246MTM0": "134",
    "UXVlc3Rpb246MTM1": "135",
    "UXVlc3Rpb246MTM2": "136",
    "UXVlc3Rpb246MTM3": "137",
    "UXVlc3Rpb246MTM4": "138",
    "UXVlc3Rpb246MTM5": "139",
    "UXVlc3Rpb246MTQx": "141",
    "UXVlc3Rpb246MTQy": "142",
    "UXVlc3Rpb246MTQz": "143",
    "UXVlc3Rpb246MTQ0": "144",
    "UXVlc3Rpb246MTQ1": "145",
    "UXVlc3Rpb246MTYy": "162",
    "UXVlc3Rpb246MTYz": "163",
    "UXVlc3Rpb246MTY0": "164",
    "UXVlc3Rpb246MjA2": "206",
    "UXVlc3Rpb246MjA1": "205",
    "UXVlc3Rpb246MTY1": "165",
    "UXVlc3Rpb246MTY2": "166",
    "UXVlc3Rpb246MTY3": "167",
    "UXVlc3Rpb246MTYw": "160",
    "UXVlc3Rpb246MTYx": "161",
    "UXVlc3Rpb246MTQ2": "146",
    "UXVlc3Rpb246MTQ3": "147",
    "UXVlc3Rpb246MTQ4": "148",
    "UXVlc3Rpb246MTQ5": "149",
    "UXVlc3Rpb246MTUw": "150",
    "UXVlc3Rpb246MTUx": "151",
    "UXVlc3Rpb246MTUy": "152",
    "UXVlc3Rpb246MTUz": "153",
    "UXVlc3Rpb246MTU0": "154",
    "UXVlc3Rpb246MTU1": "155",
    "UXVlc3Rpb246MjA3": "207",
    "UXVlc3Rpb246MTU3": "157",
    "UXVlc3Rpb246MTU4": "158",
    "UXVlc3Rpb246MTU5": "159",
    "UXVlc3Rpb246MTY5": "169",
    "UXVlc3Rpb246MTcw": "170",
    "UXVlc3Rpb246MTcx": "171",
    "UXVlc3Rpb246MjA0": "204",
    "UXVlc3Rpb246MTcy": "172",
    "UXVlc3Rpb246MTc0": "174",
    "UXVlc3Rpb246MTc1": "175",
    "UXVlc3Rpb246MTc2": "176",
    "UXVlc3Rpb246MTc3": "177",
    "UXVlc3Rpb246MTc4": "178",
    "UXVlc3Rpb246MTc5": "179",
    "UXVlc3Rpb246MTgw": "180",
    "UXVlc3Rpb246MTgx": "181",
    "UXVlc3Rpb246MTgy": "182",
    "UXVlc3Rpb246MTgz": "183",
    "UXVlc3Rpb246MTg0": "184",
    "UXVlc3Rpb246MTg1": "185",
    "UXVlc3Rpb246MTg2": "186",
    "UXVlc3Rpb246MTg3": "187",
    "UXVlc3Rpb246MTg4": "188",
    "UXVlc3Rpb246MTkx": "191",
    "UXVlc3Rpb246MTky": "192",
    "UXVlc3Rpb246MTkz": "193",
    "UXVlc3Rpb246MTk0": "194",
    "UXVlc3Rpb246MTk1": "195",
    "UXVlc3Rpb246MTk2": "196",
    "UXVlc3Rpb246MTk4": "198",
    "UXVlc3Rpb246MTk5": "199",
    "UXVlc3Rpb246MjAw": "200",
    "UXVlc3Rpb246MjAx": "201",
    "UXVlc3Rpb246MjAy": "202",
    "UXVlc3Rpb246MjAz": "203",
    "UXVlc3Rpb246MTg5": "189"
}
